Statistics Review II
…
CSV files are a common non-proprietary format for storing tabular data.

The `read_csv` function imports CSV (comma-separated values) files.

- Converts the CSV file to a [`tibble`](https://tibble.tidyverse.org), the `tidyverse` version of a `data.frame`.

---
# Workflow

## Step 3: Reshape data with `tidyr`

Variables are stored in rows instead of columns:

```
#> # A tibble: 21,800 x 4
#>    worker_id  year variable value
#>        <dbl> <dbl> <chr>    <dbl>
#>  1        13  1980 educ        14
#>  2        13  1981 educ        14
#>  3        13  1982 educ        14
#>  4        13  1983 educ        14
#>  5        13  1984 educ        14
#>  6        13  1985 educ        14
#>  7        13  1986 educ        14
#>  8        13  1987 educ        14
#>  9        17  1980 educ        13
#> 10        17  1981 educ        13
#> # ... with 21,790 more rows
```
…
Note the use of the .hi[pipe operator].

- .hi[`%>%`] .mono[=] *"and then."*

- Chains multiple commands together without having to define intermediate objects.

---
# Workflow

## Step 3: Reshape data with `tidyr`

The result:

```
#> # A tibble: 4,360 x 7
#>    worker_id  year black earnings  educ exper union
#>        <dbl> <dbl> <dbl>    <dbl> <dbl> <dbl> <dbl>
#>  1        13  1980     0    8850.    14     1     0
#>  2        13  1981     0   14800.    14     2     1
#>  3        13  1982     0   11278.    14     3     0
#>  4        13  1983     0   12409.    14     4     0
#>  5        13  1984     0   14734.    14     5     0
#>  6        13  1985     0   15676.    14     6     0
#>  7        13  1986     0    1457.    14     7     0
#>  8        13  1987     0   14013.    14     8     0
#>  9        17  1980     0   13274.    13     4     0
#> 10        17  1981     0   12800.    13     5     0
#> # ... with 4,350 more rows
```
…
Before, `union` was a binary variable equal to 1 if the worker is in a union or 0 if otherwise.

Now `union` is a character variable.

---
# Workflow

## Step 4: Manipulate data with `dplyr`

The result:

```
#> # A tibble: 4,360 x 7
#>    worker_id  year black earnings  educ exper union
#>        <dbl> <dbl> <dbl>    <dbl> <dbl> <dbl> <chr>
#>  1        13  1980     0    8850.    14     1 No   
#>  2        13  1981     0   14800.    14     2 Yes  
#>  3        13  1982     0   11278.    14     3 No   
#>  4        13  1983     0   12409.    14     4 No   
#>  5        13  1984     0   14734.    14     5 No   
#>  6        13  1985     0   15676.    14     6 No   
#>  7        13  1986     0    1457.    14     7 No   
#>  8        13  1987     0   14013.    14     8 No   
#>  9        17  1980     0   13274.    13     4 No   
#> 10        17  1981     0   12800.    13     5 No   
#> # ... with 4,350 more rows
```
…
